-16 968
272 -40 664
176 -56 744
-48 48 -72 -72 720
992
-40 -8 40 -64 -80 -48 664
-24 -24 -8 -48 856
104 -72 800
48 -80 -32 808
-56 64 -16 -32 56 -72 648
8 -72 896
-16 -80 -56 816
-56 -56 -48 80 -80 632
-16 64 -24 32 -40 776
-16 64 -40 -64 776
-48 -56 -8 -32 -8 800
40 -8 -56 -56 800
992
992
-24 960
-72 -24 880
-24 -40 -32 24 -48 784
56 -72 -80 -24 -64 656
-48 72 -32 64 -32 -48 648
992
992
992
992
