23

3
1
2
5
7
6
7
1
-1
-7
-3
-3

3
10
-2
-1
8
6
7
10
-3

1
8
3
2
-2
9
-1
-2
-1
-1

1
7
-1
-1
4

5
1
5
9
7
-5
-3
-1
-1
-1
10
3
2
-2

3
10
8
10
-1
-3
-1
-1
3
3

9
-1
6
8
7
4
-3

3
5
5
8
9
-2
-1
-2
-2
-1
7
7
3
9
-1

10
7
-2
2
9

8
3
6
7
-1
-1
-1

8
8
10
7
3
-3
-3
-1
-2
-1
6
9
-1
-1

2
6
1
-2
-1
9
-2
-1

1
7
10
4
-1
-3
-2
-1
10
3
1
7

9
9
1
-2
-2
-1
4
3
4
7
-1
-1
-1
-1

2
8
9
6
2
-1
-2
9
9
5
8
4
-3
-2
-4
-2
-3
-1
-2

8
10
-1
-1
6
10
2
-3

7
-1
2
1
5
8
10
-5
-3
-1
-2
-1

5
2
4
-3
-1
9
7
8

9
8
4
1
-2
-1
-1
-1
1
8
4
-2
-2

1
-1
4
5
1
3
-2
-3
-1

3
9
6
9
6
-4
-4
-2
10

2
3
4
3
-2
-2
-2
1

2
6
6
2
8
5
8
-4
