26

4
10
5
1
4
-5
-1
-3
-2
-1
8
10
4
-2
-2

4
4
3
-2
-1
4
4
8
-2
-3
-2
-1

4
2
-1
-1
5
6
2
5
6
-2
-4
-2
-2
-1

6
10
9
10
-3
-2
-1
6
8
7
4
-5
-2

10
-1
3
6

7
2
9
9
-4
4
5
-1
-4

8
10
6
3
8
-1
-4
4
9
1
10
-2
-1
-1
-3
-3

7
9
10
6
-2
-1
9

7
-1
5

6
8

5
5
6
5
6
-3
-4
-1
4
-1
-2

1
3
1
-3
-1
-1
2

1
10
9
10
-1
-3
8
9
-4
-3
-1

10
4
1
-2
10
-1
-2
-1

5
5
7

10
6
6
8
-2
7
9

6
7
10
7
6
-2
2
3
9
4
6
-2

9
10
7
-1
-2

3
5
4
9
-1
-3
-2
-1
4
-1

8
8
10
1
2
-5
-1
-1
-2
7
8
5
-4
-3

7
6
3
2
3
4
3
-7
-3
-4
-4
-1
-1

4
4
5
10
3
6
3
3
4

3
1
7
3
4
-2
7
8
2
-7

9
4
10
1
2
-3
-3
-3

1
1
7
10
10
-5
10
2
6
2
3
-8
-6
-2
-5
-4
-1
-3
-2
-1

8
1
3
7
-2
-1
-2
9
3
1
6
-1
-1
