-64 920
992
992
-48 64 -56 24 -80 680
-24 -48 904
56 -16 -72 -32 784
152 -48 -24 744
-72 56 -80 -48 704
-40 944
-48 -64 864
40 -40 896
-16 968
96 -72 808
992
-40 -40 -56 832
-80 48 -48 -64 -56 -72 576
-48 16 -32 -80 -56 -48 -72 -32 -48 488
72 -80 824
992
-56 -72 848
144 -16 816
-32 -32 -40 -80 -24 -48 -24 -24 -32 584
-24 8 -56 -24 -32 -56 -64 672
-72 -32 872
992
112 -24 -8 -48 768
